projects/cla/sim/cla_4b.vcd
$date
	Thu Jun 25 04:01:44 2026
$end
$version
	Icarus Verilog
$end
$timescale
	1ps
$end
$scope module tb_cla_4b $end
$var wire 4 ! sum [3:0] $end
$var wire 1 " cout $end
$var reg 4 # a [3:0] $end
$var reg 4 $ b [3:0] $end
$var reg 1 % cin $end
$var reg 5 & expected_res [4:0] $end
$var integer 32 ' error_count [31:0] $end
$var integer 32 ( i [31:0] $end
$var integer 32 ) j [31:0] $end
$var integer 32 * k [31:0] $end
$scope module dut $end
$var wire 4 + a [3:0] $end
$var wire 4 , b [3:0] $end
$var wire 1 % cin $end
$var wire 4 - sum [3:0] $end
$var wire 4 . p [3:0] $end
$var wire 4 / g [3:0] $end
$var wire 1 " cout $end
$var wire 5 0 c [4:0] $end
$scope begin create_g_and_p[0] $end
$var parameter 2 1 j $end
$upscope $end
$scope begin create_g_and_p[1] $end
$var parameter 2 2 j $end
$upscope $end
$scope begin create_g_and_p[2] $end
$var parameter 3 3 j $end
$upscope $end
$scope begin create_g_and_p[3] $end
$var parameter 3 4 j $end
$upscope $end
$scope begin create_sum[0] $end
$var parameter 2 5 l $end
$upscope $end
$scope begin create_sum[1] $end
$var parameter 2 6 l $end
$upscope $end
$scope begin create_sum[2] $end
$var parameter 3 7 l $end
$upscope $end
$scope begin create_sum[3] $end
$var parameter 3 8 l $end
$upscope $end
$upscope $end
$upscope $end
$enddefinitions $end
$comment Show the parameter values. $end
$dumpall
b11 8
b10 7
b1 6
b0 5
b11 4
b10 3
b1 2
b0 1
$end
#0
$dumpvars
b0 0
b0 /
b0 .
b0 -
b0 ,
b0 +
b0 *
b0 )
b0 (
b0 '
bx &
0%
b0 $
b0 #
0"
b0 !
$end
#10000
b1 !
b1 -
b1 .
b1 $
b1 ,
b1 )
b0 &
#20000
b10 !
b10 -
b10 .
b10 $
b10 ,
b10 )
b1 &
#30000
b11 !
b11 -
b11 .
b11 $
b11 ,
b11 )
b10 &
#40000
b100 !
b100 -
b100 .
b100 $
b100 ,
b100 )
b11 &
#50000
b101 !
b101 -
b101 .
b101 $
b101 ,
b101 )
b100 &
#60000
b110 !
b110 -
b110 .
b110 $
b110 ,
b110 )
b101 &
#70000
b111 !
b111 -
b111 .
b111 $
b111 ,
b111 )
b110 &
#80000
b1000 !
b1000 -
b1000 .
b1000 $
b1000 ,
b1000 )
b111 &
#90000
b1001 !
b1001 -
b1001 .
b1001 $
b1001 ,
b1001 )
b1000 &
#100000
b1010 !
b1010 -
b1010 .
b1010 $
b1010 ,
b1010 )
b1001 &
#110000
b1011 !
b1011 -
b1011 .
b1011 $
b1011 ,
b1011 )
b1010 &
#120000
b1100 !
b1100 -
b1100 .
b1100 $
b1100 ,
b1100 )
b1011 &
#130000
b1101 !
b1101 -
b1101 .
b1101 $
b1101 ,
b1101 )
b1100 &
#140000
b1110 !
b1110 -
b1110 .
b1110 $
b1110 ,
b1110 )
b1101 &
#150000
b1111 !
b1111 -
b1111 .
b1111 $
b1111 ,
b1111 )
b1110 &
#160000
b1 !
b1 -
b1 .
b0 $
b0 ,
b1 #
b1 +
b1 (
b0 )
b1111 &
#170000
b10 0
b10 !
b10 -
b1 /
b0 .
b1 $
b1 ,
b1 )
b1 &
#180000
b0 0
b11 !
b11 -
b0 /
b11 .
b10 $
b10 ,
b10 )
b10 &
#190000
b110 0
b100 !
b100 -
b1 /
b10 .
b11 $
b11 ,
b11 )
b11 &
#200000
b0 0
b101 !
b101 -
b0 /
b101 .
b100 $
b100 ,
b100 )
b100 &
#210000
b10 0
b110 !
b110 -
b1 /
b100 .
b101 $
b101 ,
b101 )
b101 &
#220000
b0 0
b111 !
b111 -
b0 /
b111 .
b110 $
b110 ,
b110 )
b110 &
#230000
b1110 0
b1000 !
b1000 -
b1 /
b110 .
b111 $
b111 ,
b111 )
b111 &
#240000
0"
b0 0
b1001 !
b1001 -
b0 /
b1001 .
b1000 $
b1000 ,
b1000 )
b1000 &
#250000
b10 0
b1010 !
b1010 -
b1 /
b1000 .
b1001 $
b1001 ,
b1001 )
b1001 &
#260000
b0 0
b1011 !
b1011 -
b0 /
b1011 .
b1010 $
b1010 ,
b1010 )
b1010 &
#270000
b110 0
b1100 !
b1100 -
b1 /
b1010 .
b1011 $
b1011 ,
b1011 )
b1011 &
#280000
0"
b0 0
b1101 !
b1101 -
b0 /
b1101 .
b1100 $
b1100 ,
b1100 )
b1100 &
#290000
b10 0
b1110 !
b1110 -
b1 /
b1100 .
b1101 $
b1101 ,
b1101 )
b1101 &
#300000
0"
b0 0
b1111 !
b1111 -
b0 /
b1111 .
b1110 $
b1110 ,
b1110 )
b1110 &
#310000
1"
b11110 0
b0 !
b0 -
b1 /
b1110 .
b1111 $
b1111 ,
b1111 )
b1111 &
#320000
0"
b10 !
b10 -
b0 0
b10 .
b0 /
b0 $
b0 ,
b10 #
b10 +
b10 (
b0 )
b10000 &
#330000
b11 !
b11 -
b11 .
b1 $
b1 ,
b1 )
b10 &
#340000
b100 0
b100 !
b100 -
b10 /
b0 .
b10 $
b10 ,
b10 )
b11 &
#350000
b101 !
b101 -
b1 .
b11 $
b11 ,
b11 )
b100 &
#360000
b0 0
b110 !
b110 -
b0 /
b110 .
b100 $
b100 ,
b100 )
b101 &
#370000
b111 !
b111 -
b111 .
b101 $
b101 ,
b101 )
b110 &
#380000
b1100 0
b1000 !
b1000 -
b10 /
b100 .
b110 $
b110 ,
b110 )
b111 &
#390000
b1001 !
b1001 -
b101 .
b111 $
b111 ,
b111 )
b1000 &
#400000
0"
b0 0
b1010 !
b1010 -
b0 /
b1010 .
b1000 $
b1000 ,
b1000 )
b1001 &
#410000
b1011 !
b1011 -
b1011 .
b1001 $
b1001 ,
b1001 )
b1010 &
#420000
b100 0
b1100 !
b1100 -
b10 /
b1000 .
b1010 $
b1010 ,
b1010 )
b1011 &
#430000
b1101 !
b1101 -
b1001 .
b1011 $
b1011 ,
b1011 )
b1100 &
#440000
0"
b0 0
b1110 !
b1110 -
b0 /
b1110 .
b1100 $
b1100 ,
b1100 )
b1101 &
#450000
b1111 !
b1111 -
b1111 .
b1101 $
b1101 ,
b1101 )
b1110 &
#460000
1"
b11100 0
b0 !
b0 -
b10 /
b1100 .
b1110 $
b1110 ,
b1110 )
b1111 &
#470000
b1 !
b1 -
b1101 .
b1111 $
b1111 ,
b1111 )
b10000 &
#480000
0"
b0 0
b11 !
b11 -
b0 /
b11 .
b0 $
b0 ,
b11 #
b11 +
b11 (
b0 )
b10001 &
#490000
b110 0
b100 !
b100 -
b1 /
b10 .
b1 $
b1 ,
b1 )
b11 &
#500000
b100 0
b101 !
b101 -
b10 /
b1 .
b10 $
b10 ,
b10 )
b100 &
#510000
b110 0
b110 !
b110 -
b11 /
b0 .
b11 $
b11 ,
b11 )
b101 &
#520000
b0 0
b111 !
b111 -
b0 /
b111 .
b100 $
b100 ,
b100 )
b110 &
#530000
b1110 0
b1000 !
b1000 -
b1 /
b110 .
b101 $
b101 ,
b101 )
b111 &
#540000
b1100 0
b1001 !
b1001 -
b10 /
b101 .
b110 $
b110 ,
b110 )
b1000 &
#550000
b1110 0
b1010 !
b1010 -
b11 /
b100 .
b111 $
b111 ,
b111 )
b1001 &
#560000
0"
b0 0
b1011 !
b1011 -
b0 /
b1011 .
b1000 $
b1000 ,
b1000 )
b1010 &
#570000
b110 0
b1100 !
b1100 -
b1 /
b1010 .
b1001 $
b1001 ,
b1001 )
b1011 &
#580000
b100 0
b1101 !
b1101 -
b10 /
b1001 .
b1010 $
b1010 ,
b1010 )
b1100 &
#590000
b110 0
b1110 !
b1110 -
b11 /
b1000 .
b1011 $
b1011 ,
b1011 )
b1101 &
#600000
0"
b0 0
b1111 !
b1111 -
b0 /
b1111 .
b1100 $
b1100 ,
b1100 )
b1110 &
#610000
1"
b11110 0
b0 !
b0 -
b1 /
b1110 .
b1101 $
b1101 ,
b1101 )
b1111 &
#620000
b11100 0
b1 !
b1 -
b10 /
b1101 .
b1110 $
b1110 ,
b1110 )
b10000 &
#630000
b11110 0
b10 !
b10 -
b11 /
b1100 .
b1111 $
b1111 ,
b1111 )
b10001 &
#640000
0"
b100 !
b100 -
b0 0
b100 .
b0 /
b0 $
b0 ,
b100 #
b100 +
b100 (
b0 )
b10010 &
#650000
b101 !
b101 -
b101 .
b1 $
b1 ,
b1 )
b100 &
#660000
b110 !
b110 -
b110 .
b10 $
b10 ,
b10 )
b101 &
#670000
b111 !
b111 -
b111 .
b11 $
b11 ,
b11 )
b110 &
#680000
b1000 0
b1000 !
b1000 -
b100 /
b0 .
b100 $
b100 ,
b100 )
b111 &
#690000
b1001 !
b1001 -
b1 .
b101 $
b101 ,
b101 )
b1000 &
#700000
b1010 !
b1010 -
b10 .
b110 $
b110 ,
b110 )
b1001 &
#710000
b1011 !
b1011 -
b11 .
b111 $
b111 ,
b111 )
b1010 &
#720000
0"
b0 0
b1100 !
b1100 -
b0 /
b1100 .
b1000 $
b1000 ,
b1000 )
b1011 &
#730000
b1101 !
b1101 -
b1101 .
b1001 $
b1001 ,
b1001 )
b1100 &
#740000
b1110 !
b1110 -
b1110 .
b1010 $
b1010 ,
b1010 )
b1101 &
#750000
b1111 !
b1111 -
b1111 .
b1011 $
b1011 ,
b1011 )
b1110 &
#760000
1"
b11000 0
b0 !
b0 -
b100 /
b1000 .
b1100 $
b1100 ,
b1100 )
b1111 &
#770000
b1 !
b1 -
b1001 .
b1101 $
b1101 ,
b1101 )
b10000 &
#780000
b10 !
b10 -
b1010 .
b1110 $
b1110 ,
b1110 )
b10001 &
#790000
b11 !
b11 -
b1011 .
b1111 $
b1111 ,
b1111 )
b10010 &
#800000
0"
b0 0
b101 !
b101 -
b0 /
b101 .
b0 $
b0 ,
b101 #
b101 +
b101 (
b0 )
b10011 &
#810000
b10 0
b110 !
b110 -
b1 /
b100 .
b1 $
b1 ,
b1 )
b101 &
#820000
b0 0
b111 !
b111 -
b0 /
b111 .
b10 $
b10 ,
b10 )
b110 &
#830000
b1110 0
b1000 !
b1000 -
b1 /
b110 .
b11 $
b11 ,
b11 )
b111 &
#840000
b1000 0
b1001 !
b1001 -
b100 /
b1 .
b100 $
b100 ,
b100 )
b1000 &
#850000
b1010 0
b1010 !
b1010 -
b101 /
b0 .
b101 $
b101 ,
b101 )
b1001 &
#860000
b1000 0
b1011 !
b1011 -
b100 /
b11 .
b110 $
b110 ,
b110 )
b1010 &
#870000
b1110 0
b1100 !
b1100 -
b101 /
b10 .
b111 $
b111 ,
b111 )
b1011 &
#880000
0"
b0 0
b1101 !
b1101 -
b0 /
b1101 .
b1000 $
b1000 ,
b1000 )
b1100 &
#890000
b10 0
b1110 !
b1110 -
b1 /
b1100 .
b1001 $
b1001 ,
b1001 )
b1101 &
#900000
0"
b0 0
b1111 !
b1111 -
b0 /
b1111 .
b1010 $
b1010 ,
b1010 )
b1110 &
#910000
1"
b11110 0
b0 !
b0 -
b1 /
b1110 .
b1011 $
b1011 ,
b1011 )
b1111 &
#920000
b11000 0
b1 !
b1 -
b100 /
b1001 .
b1100 $
b1100 ,
b1100 )
b10000 &
#930000
b11010 0
b10 !
b10 -
b101 /
b1000 .
b1101 $
b1101 ,
b1101 )
b10001 &
#940000
b11000 0
b11 !
b11 -
b100 /
b1011 .
b1110 $
b1110 ,
b1110 )
b10010 &
#950000
b11110 0
b100 !
b100 -
b101 /
b1010 .
b1111 $
b1111 ,
b1111 )
b10011 &
#960000
0"
b110 !
b110 -
b0 0
b110 .
b0 /
b0 $
b0 ,
b110 #
b110 +
b110 (
b0 )
b10100 &
#970000
b111 !
b111 -
b111 .
b1 $
b1 ,
b1 )
b110 &
#980000
b1100 0
b1000 !
b1000 -
b10 /
b100 .
b10 $
b10 ,
b10 )
b111 &
#990000
b1001 !
b1001 -
b101 .
b11 $
b11 ,
b11 )
b1000 &
#1000000
b1000 0
b1010 !
b1010 -
b100 /
b10 .
b100 $
b100 ,
b100 )
b1001 &
#1010000
b1011 !
b1011 -
b11 .
b101 $
b101 ,
b101 )
b1010 &
#1020000
b1100 0
b1100 !
b1100 -
b110 /
b0 .
b110 $
b110 ,
b110 )
b1011 &
#1030000
b1101 !
b1101 -
b1 .
b111 $
b111 ,
b111 )
b1100 &
#1040000
0"
b0 0
b1110 !
b1110 -
b0 /
b1110 .
b1000 $
b1000 ,
b1000 )
b1101 &
#1050000
b1111 !
b1111 -
b1111 .
b1001 $
b1001 ,
b1001 )
b1110 &
#1060000
1"
b11100 0
b0 !
b0 -
b10 /
b1100 .
b1010 $
b1010 ,
b1010 )
b1111 &
#1070000
b1 !
b1 -
b1101 .
b1011 $
b1011 ,
b1011 )
b10000 &
#1080000
b11000 0
b10 !
b10 -
b100 /
b1010 .
b1100 $
b1100 ,
b1100 )
b10001 &
#1090000
b11 !
b11 -
b1011 .
b1101 $
b1101 ,
b1101 )
b10010 &
#1100000
b11100 0
b100 !
b100 -
b110 /
b1000 .
b1110 $
b1110 ,
b1110 )
b10011 &
#1110000
b101 !
b101 -
b1001 .
b1111 $
b1111 ,
b1111 )
b10100 &
#1120000
0"
b0 0
b111 !
b111 -
b0 /
b111 .
b0 $
b0 ,
b111 #
b111 +
b111 (
b0 )
b10101 &
#1130000
b1110 0
b1000 !
b1000 -
b1 /
b110 .
b1 $
b1 ,
b1 )
b111 &
#1140000
b1100 0
b1001 !
b1001 -
b10 /
b101 .
b10 $
b10 ,
b10 )
b1000 &
#1150000
b1110 0
b1010 !
b1010 -
b11 /
b100 .
b11 $
b11 ,
b11 )
b1001 &
#1160000
b1000 0
b1011 !
b1011 -
b100 /
b11 .
b100 $
b100 ,
b100 )
b1010 &
#1170000
b1110 0
b1100 !
b1100 -
b101 /
b10 .
b101 $
b101 ,
b101 )
b1011 &
#1180000
b1100 0
b1101 !
b1101 -
b110 /
b1 .
b110 $
b110 ,
b110 )
b1100 &
#1190000
b1110 0
b1110 !
b1110 -
b111 /
b0 .
b111 $
b111 ,
b111 )
b1101 &
#1200000
0"
b0 0
b1111 !
b1111 -
b0 /
b1111 .
b1000 $
b1000 ,
b1000 )
b1110 &
#1210000
1"
b11110 0
b0 !
b0 -
b1 /
b1110 .
b1001 $
b1001 ,
b1001 )
b1111 &
#1220000
b11100 0
b1 !
b1 -
b10 /
b1101 .
b1010 $
b1010 ,
b1010 )
b10000 &
#1230000
b11110 0
b10 !
b10 -
b11 /
b1100 .
b1011 $
b1011 ,
b1011 )
b10001 &
#1240000
b11000 0
b11 !
b11 -
b100 /
b1011 .
b1100 $
b1100 ,
b1100 )
b10010 &
#1250000
b11110 0
b100 !
b100 -
b101 /
b1010 .
b1101 $
b1101 ,
b1101 )
b10011 &
#1260000
b11100 0
b101 !
b101 -
b110 /
b1001 .
b1110 $
b1110 ,
b1110 )
b10100 &
#1270000
b11110 0
b110 !
b110 -
b111 /
b1000 .
b1111 $
b1111 ,
b1111 )
b10101 &
#1280000
0"
b1000 !
b1000 -
b0 0
b0 /
b0 $
b0 ,
b1000 #
b1000 +
b1000 (
b0 )
b10110 &
#1290000
b1001 !
b1001 -
b1001 .
b1 $
b1 ,
b1 )
b1000 &
#1300000
b1010 !
b1010 -
b1010 .
b10 $
b10 ,
b10 )
b1001 &
#1310000
b1011 !
b1011 -
b1011 .
b11 $
b11 ,
b11 )
b1010 &
#1320000
b1100 !
b1100 -
b1100 .
b100 $
b100 ,
b100 )
b1011 &
#1330000
b1101 !
b1101 -
b1101 .
b101 $
b101 ,
b101 )
b1100 &
#1340000
b1110 !
b1110 -
b1110 .
b110 $
b110 ,
b110 )
b1101 &
#1350000
b1111 !
b1111 -
b1111 .
b111 $
b111 ,
b111 )
b1110 &
#1360000
1"
b10000 0
b0 !
b0 -
b1000 /
b0 .
b1000 $
b1000 ,
b1000 )
b1111 &
#1370000
b1 !
b1 -
b1 .
b1001 $
b1001 ,
b1001 )
b10000 &
#1380000
b10 !
b10 -
b10 .
b1010 $
b1010 ,
b1010 )
b10001 &
#1390000
b11 !
b11 -
b11 .
b1011 $
b1011 ,
b1011 )
b10010 &
#1400000
b100 !
b100 -
b100 .
b1100 $
b1100 ,
b1100 )
b10011 &
#1410000
b101 !
b101 -
b101 .
b1101 $
b1101 ,
b1101 )
b10100 &
#1420000
b110 !
b110 -
b110 .
b1110 $
b1110 ,
b1110 )
b10101 &
#1430000
b111 !
b111 -
b111 .
b1111 $
b1111 ,
b1111 )
b10110 &
#1440000
0"
b0 0
b1001 !
b1001 -
b0 /
b1001 .
b0 $
b0 ,
b1001 #
b1001 +
b1001 (
b0 )
b10111 &
#1450000
b10 0
b1010 !
b1010 -
b1 /
b1000 .
b1 $
b1 ,
b1 )
b1001 &
#1460000
b0 0
b1011 !
b1011 -
b0 /
b1011 .
b10 $
b10 ,
b10 )
b1010 &
#1470000
b110 0
b1100 !
b1100 -
b1 /
b1010 .
b11 $
b11 ,
b11 )
b1011 &
#1480000
0"
b0 0
b1101 !
b1101 -
b0 /
b1101 .
b100 $
b100 ,
b100 )
b1100 &
#1490000
b10 0
b1110 !
b1110 -
b1 /
b1100 .
b101 $
b101 ,
b101 )
b1101 &
#1500000
0"
b0 0
b1111 !
b1111 -
b0 /
b1111 .
b110 $
b110 ,
b110 )
b1110 &
#1510000
1"
b11110 0
b0 !
b0 -
b1 /
b1110 .
b111 $
b111 ,
b111 )
b1111 &
#1520000
b10000 0
b1 !
b1 -
b1000 /
b1 .
b1000 $
b1000 ,
b1000 )
b10000 &
#1530000
b10010 0
b10 !
b10 -
b1001 /
b0 .
b1001 $
b1001 ,
b1001 )
b10001 &
#1540000
b10000 0
b11 !
b11 -
b1000 /
b11 .
b1010 $
b1010 ,
b1010 )
b10010 &
#1550000
b10110 0
b100 !
b100 -
b1001 /
b10 .
b1011 $
b1011 ,
b1011 )
b10011 &
#1560000
b10000 0
b101 !
b101 -
b1000 /
b101 .
b1100 $
b1100 ,
b1100 )
b10100 &
#1570000
b10010 0
b110 !
b110 -
b1001 /
b100 .
b1101 $
b1101 ,
b1101 )
b10101 &
#1580000
b10000 0
b111 !
b111 -
b1000 /
b111 .
b1110 $
b1110 ,
b1110 )
b10110 &
#1590000
b11110 0
b1000 !
b1000 -
b1001 /
b110 .
b1111 $
b1111 ,
b1111 )
b10111 &
#1600000
0"
b1010 !
b1010 -
b0 0
b1010 .
b0 /
b0 $
b0 ,
b1010 #
b1010 +
b1010 (
b0 )
b11000 &
#1610000
b1011 !
b1011 -
b1011 .
b1 $
b1 ,
b1 )
b1010 &
#1620000
b100 0
b1100 !
b1100 -
b10 /
b1000 .
b10 $
b10 ,
b10 )
b1011 &
#1630000
b1101 !
b1101 -
b1001 .
b11 $
b11 ,
b11 )
b1100 &
#1640000
0"
b0 0
b1110 !
b1110 -
b0 /
b1110 .
b100 $
b100 ,
b100 )
b1101 &
#1650000
b1111 !
b1111 -
b1111 .
b101 $
b101 ,
b101 )
b1110 &
#1660000
1"
b11100 0
b0 !
b0 -
b10 /
b1100 .
b110 $
b110 ,
b110 )
b1111 &
#1670000
b1 !
b1 -
b1101 .
b111 $
b111 ,
b111 )
b10000 &
#1680000
b10000 0
b10 !
b10 -
b1000 /
b10 .
b1000 $
b1000 ,
b1000 )
b10001 &
#1690000
b11 !
b11 -
b11 .
b1001 $
b1001 ,
b1001 )
b10010 &
#1700000
b10100 0
b100 !
b100 -
b1010 /
b0 .
b1010 $
b1010 ,
b1010 )
b10011 &
#1710000
b101 !
b101 -
b1 .
b1011 $
b1011 ,
b1011 )
b10100 &
#1720000
b10000 0
b110 !
b110 -
b1000 /
b110 .
b1100 $
b1100 ,
b1100 )
b10101 &
#1730000
b111 !
b111 -
b111 .
b1101 $
b1101 ,
b1101 )
b10110 &
#1740000
b11100 0
b1000 !
b1000 -
b1010 /
b100 .
b1110 $
b1110 ,
b1110 )
b10111 &
#1750000
b1001 !
b1001 -
b101 .
b1111 $
b1111 ,
b1111 )
b11000 &
#1760000
0"
b0 0
b1011 !
b1011 -
b0 /
b1011 .
b0 $
b0 ,
b1011 #
b1011 +
b1011 (
b0 )
b11001 &
#1770000
b110 0
b1100 !
b1100 -
b1 /
b1010 .
b1 $
b1 ,
b1 )
b1011 &
#1780000
b100 0
b1101 !
b1101 -
b10 /
b1001 .
b10 $
b10 ,
b10 )
b1100 &
#1790000
b110 0
b1110 !
b1110 -
b11 /
b1000 .
b11 $
b11 ,
b11 )
b1101 &
#1800000
0"
b0 0
b1111 !
b1111 -
b0 /
b1111 .
b100 $
b100 ,
b100 )
b1110 &
#1810000
1"
b11110 0
b0 !
b0 -
b1 /
b1110 .
b101 $
b101 ,
b101 )
b1111 &
#1820000
b11100 0
b1 !
b1 -
b10 /
b1101 .
b110 $
b110 ,
b110 )
b10000 &
#1830000
b11110 0
b10 !
b10 -
b11 /
b1100 .
b111 $
b111 ,
b111 )
b10001 &
#1840000
b10000 0
b11 !
b11 -
b1000 /
b11 .
b1000 $
b1000 ,
b1000 )
b10010 &
#1850000
b10110 0
b100 !
b100 -
b1001 /
b10 .
b1001 $
b1001 ,
b1001 )
b10011 &
#1860000
b10100 0
b101 !
b101 -
b1010 /
b1 .
b1010 $
b1010 ,
b1010 )
b10100 &
#1870000
b10110 0
b110 !
b110 -
b1011 /
b0 .
b1011 $
b1011 ,
b1011 )
b10101 &
#1880000
b10000 0
b111 !
b111 -
b1000 /
b111 .
b1100 $
b1100 ,
b1100 )
b10110 &
#1890000
b11110 0
b1000 !
b1000 -
b1001 /
b110 .
b1101 $
b1101 ,
b1101 )
b10111 &
#1900000
b11100 0
b1001 !
b1001 -
b1010 /
b101 .
b1110 $
b1110 ,
b1110 )
b11000 &
#1910000
b11110 0
b1010 !
b1010 -
b1011 /
b100 .
b1111 $
b1111 ,
b1111 )
b11001 &
#1920000
0"
b1100 !
b1100 -
b0 0
b1100 .
b0 /
b0 $
b0 ,
b1100 #
b1100 +
b1100 (
b0 )
b11010 &
#1930000
b1101 !
b1101 -
b1101 .
b1 $
b1 ,
b1 )
b1100 &
#1940000
b1110 !
b1110 -
b1110 .
b10 $
b10 ,
b10 )
b1101 &
#1950000
b1111 !
b1111 -
b1111 .
b11 $
b11 ,
b11 )
b1110 &
#1960000
1"
b11000 0
b0 !
b0 -
b100 /
b1000 .
b100 $
b100 ,
b100 )
b1111 &
#1970000
b1 !
b1 -
b1001 .
b101 $
b101 ,
b101 )
b10000 &
#1980000
b10 !
b10 -
b1010 .
b110 $
b110 ,
b110 )
b10001 &
#1990000
b11 !
b11 -
b1011 .
b111 $
b111 ,
b111 )
b10010 &
#2000000
b10000 0
b100 !
b100 -
b1000 /
b100 .
b1000 $
b1000 ,
b1000 )
b10011 &
#2010000
b101 !
b101 -
b101 .
b1001 $
b1001 ,
b1001 )
b10100 &
#2020000
b110 !
b110 -
b110 .
b1010 $
b1010 ,
b1010 )
b10101 &
#2030000
b111 !
b111 -
b111 .
b1011 $
b1011 ,
b1011 )
b10110 &
#2040000
b11000 0
b1000 !
b1000 -
b1100 /
b0 .
b1100 $
b1100 ,
b1100 )
b10111 &
#2050000
b1001 !
b1001 -
b1 .
b1101 $
b1101 ,
b1101 )
b11000 &
#2060000
b1010 !
b1010 -
b10 .
b1110 $
b1110 ,
b1110 )
b11001 &
#2070000
b1011 !
b1011 -
b11 .
b1111 $
b1111 ,
b1111 )
b11010 &
#2080000
0"
b0 0
b1101 !
b1101 -
b0 /
b1101 .
b0 $
b0 ,
b1101 #
b1101 +
b1101 (
b0 )
b11011 &
#2090000
b10 0
b1110 !
b1110 -
b1 /
b1100 .
b1 $
b1 ,
b1 )
b1101 &
#2100000
0"
b0 0
b1111 !
b1111 -
b0 /
b1111 .
b10 $
b10 ,
b10 )
b1110 &
#2110000
1"
b11110 0
b0 !
b0 -
b1 /
b1110 .
b11 $
b11 ,
b11 )
b1111 &
#2120000
b11000 0
b1 !
b1 -
b100 /
b1001 .
b100 $
b100 ,
b100 )
b10000 &
#2130000
b11010 0
b10 !
b10 -
b101 /
b1000 .
b101 $
b101 ,
b101 )
b10001 &
#2140000
b11000 0
b11 !
b11 -
b100 /
b1011 .
b110 $
b110 ,
b110 )
b10010 &
#2150000
b11110 0
b100 !
b100 -
b101 /
b1010 .
b111 $
b111 ,
b111 )
b10011 &
#2160000
b10000 0
b101 !
b101 -
b1000 /
b101 .
b1000 $
b1000 ,
b1000 )
b10100 &
#2170000
b10010 0
b110 !
b110 -
b1001 /
b100 .
b1001 $
b1001 ,
b1001 )
b10101 &
#2180000
b10000 0
b111 !
b111 -
b1000 /
b111 .
b1010 $
b1010 ,
b1010 )
b10110 &
#2190000
b11110 0
b1000 !
b1000 -
b1001 /
b110 .
b1011 $
b1011 ,
b1011 )
b10111 &
#2200000
b11000 0
b1001 !
b1001 -
b1100 /
b1 .
b1100 $
b1100 ,
b1100 )
b11000 &
#2210000
b11010 0
b1010 !
b1010 -
b1101 /
b0 .
b1101 $
b1101 ,
b1101 )
b11001 &
#2220000
b11000 0
b1011 !
b1011 -
b1100 /
b11 .
b1110 $
b1110 ,
b1110 )
b11010 &
#2230000
b11110 0
b1100 !
b1100 -
b1101 /
b10 .
b1111 $
b1111 ,
b1111 )
b11011 &
#2240000
0"
b1110 !
b1110 -
b0 0
b1110 .
b0 /
b0 $
b0 ,
b1110 #
b1110 +
b1110 (
b0 )
b11100 &
#2250000
b1111 !
b1111 -
b1111 .
b1 $
b1 ,
b1 )
b1110 &
#2260000
1"
b11100 0
b0 !
b0 -
b10 /
b1100 .
b10 $
b10 ,
b10 )
b1111 &
#2270000
b1 !
b1 -
b1101 .
b11 $
b11 ,
b11 )
b10000 &
#2280000
b11000 0
b10 !
b10 -
b100 /
b1010 .
b100 $
b100 ,
b100 )
b10001 &
#2290000
b11 !
b11 -
b1011 .
b101 $
b101 ,
b101 )
b10010 &
#2300000
b11100 0
b100 !
b100 -
b110 /
b1000 .
b110 $
b110 ,
b110 )
b10011 &
#2310000
b101 !
b101 -
b1001 .
b111 $
b111 ,
b111 )
b10100 &
#2320000
b10000 0
b110 !
b110 -
b1000 /
b110 .
b1000 $
b1000 ,
b1000 )
b10101 &
#2330000
b111 !
b111 -
b111 .
b1001 $
b1001 ,
b1001 )
b10110 &
#2340000
b11100 0
b1000 !
b1000 -
b1010 /
b100 .
b1010 $
b1010 ,
b1010 )
b10111 &
#2350000
b1001 !
b1001 -
b101 .
b1011 $
b1011 ,
b1011 )
b11000 &
#2360000
b11000 0
b1010 !
b1010 -
b1100 /
b10 .
b1100 $
b1100 ,
b1100 )
b11001 &
#2370000
b1011 !
b1011 -
b11 .
b1101 $
b1101 ,
b1101 )
b11010 &
#2380000
b11100 0
b1100 !
b1100 -
b1110 /
b0 .
b1110 $
b1110 ,
b1110 )
b11011 &
#2390000
b1101 !
b1101 -
b1 .
b1111 $
b1111 ,
b1111 )
b11100 &
#2400000
0"
b0 0
b1111 !
b1111 -
b0 /
b1111 .
b0 $
b0 ,
b1111 #
b1111 +
b1111 (
b0 )
b11101 &
#2410000
1"
b11110 0
b0 !
b0 -
b1 /
b1110 .
b1 $
b1 ,
b1 )
b1111 &
#2420000
b11100 0
b1 !
b1 -
b10 /
b1101 .
b10 $
b10 ,
b10 )
b10000 &
#2430000
b11110 0
b10 !
b10 -
b11 /
b1100 .
b11 $
b11 ,
b11 )
b10001 &
#2440000
b11000 0
b11 !
b11 -
b100 /
b1011 .
b100 $
b100 ,
b100 )
b10010 &
#2450000
b11110 0
b100 !
b100 -
b101 /
b1010 .
b101 $
b101 ,
b101 )
b10011 &
#2460000
b11100 0
b101 !
b101 -
b110 /
b1001 .
b110 $
b110 ,
b110 )
b10100 &
#2470000
b11110 0
b110 !
b110 -
b111 /
b1000 .
b111 $
b111 ,
b111 )
b10101 &
#2480000
b10000 0
b111 !
b111 -
b1000 /
b111 .
b1000 $
b1000 ,
b1000 )
b10110 &
#2490000
b11110 0
b1000 !
b1000 -
b1001 /
b110 .
b1001 $
b1001 ,
b1001 )
b10111 &
#2500000
b11100 0
b1001 !
b1001 -
b1010 /
b101 .
b1010 $
b1010 ,
b1010 )
b11000 &
#2510000
b11110 0
b1010 !
b1010 -
b1011 /
b100 .
b1011 $
b1011 ,
b1011 )
b11001 &
#2520000
b11000 0
b1011 !
b1011 -
b1100 /
b11 .
b1100 $
b1100 ,
b1100 )
b11010 &
#2530000
b11110 0
b1100 !
b1100 -
b1101 /
b10 .
b1101 $
b1101 ,
b1101 )
b11011 &
#2540000
b11100 0
b1101 !
b1101 -
b1110 /
b1 .
b1110 $
b1110 ,
b1110 )
b11100 &
#2550000
b11110 0
b1110 !
b1110 -
b1111 /
b0 .
b1111 $
b1111 ,
b1111 )
b11101 &
#2560000
0"
b1 !
b1 -
b0 /
b1 0
1%
b0 $
b0 ,
b0 #
b0 +
b1 *
b0 (
b0 )
b11110 &
#2570000
b11 0
b10 !
b10 -
b1 .
b1 $
b1 ,
b1 )
b1 &
#2580000
b1 0
b11 !
b11 -
b10 .
b10 $
b10 ,
b10 )
b10 &
#2590000
b111 0
b100 !
b100 -
b11 .
b11 $
b11 ,
b11 )
b11 &
#2600000
b1 0
b101 !
b101 -
b100 .
b100 $
b100 ,
b100 )
b100 &
#2610000
b11 0
b110 !
b110 -
b101 .
b101 $
b101 ,
b101 )
b101 &
#2620000
b1 0
b111 !
b111 -
b110 .
b110 $
b110 ,
b110 )
b110 &
#2630000
b1111 0
b1000 !
b1000 -
b111 .
b111 $
b111 ,
b111 )
b111 &
#2640000
0"
b1 0
b1001 !
b1001 -
b1000 .
b1000 $
b1000 ,
b1000 )
b1000 &
#2650000
b11 0
b1010 !
b1010 -
b1001 .
b1001 $
b1001 ,
b1001 )
b1001 &
#2660000
b1 0
b1011 !
b1011 -
b1010 .
b1010 $
b1010 ,
b1010 )
b1010 &
